…
)
df

## # A tibble: 23 × 2
##    date      count
##    <chr>     <dbl>
##  1 7/12/2020  25.2
##  2 7/13/2020  19.8
##  3 7/14/2020  19.8
##  4 7/15/2020  20.5
##  5 7/16/2020  19.8
##  6 7/17/2020  19.8
##  7 7/18/2020  20.4
##  8 7/19/2020  19.8
##  9 7/20/2020  20.3
## 10 7/21/2020  21.2
## # … with 13 more rows
…
)
df2

## # A tibble: 23 × 2
##    date      count
##    <chr>     <dbl>
##  1 7/12/2020   9.9
##  2 7/13/2020   9.1
##  3 7/14/2020   9.4
##  4 7/15/2020   9.9
##  5 7/16/2020   9.9
##  6 7/17/2020   9.4
##  7 7/18/2020   9.4
##  8 7/19/2020   8.9
##  9 7/20/2020   8.6
## 10 7/21/2020   8.6
## # … with 13 more rows

df3 <- df %>%  mutate(Type = 'Mask') %>%
       bind_rows(df2 %>%
           mutate(Type = 'No Mask'))

df3

## # A tibble: 46 × 3
##    date      count Type 
##    <chr>     <dbl> <chr>
##  1 7/12/2020  25.2 Mask 
##  2 7/13/2020  19.8 Mask 
##  3 7/14/2020  19.8 Mask 
##  4 7/15/2020  20.5 Mask 
##  5 7/16/2020  19.8 Mask 
##  6 7/17/2020  19.8 Mask 
##  7 7/18/2020  20.4 Mask 
##  8 7/19/2020  19.8 Mask 
##  9 7/20/2020  20.3 Mask 
## 10 7/21/2020  21.2 Mask 
## # … with 36 more rows
…
mdf <- data.frame(mdate)

df3 <- df %>%  mutate(Type = 'Mask') %>%
       bind_rows(df2 %>%
           mutate(Type = 'No Mask'))

df4 <- 
mutate(df3, date= as.Date(date, format= "%m/%d/%Y"))
df4

## # A tibble: 46 × 3
##    date       count Type 
##    <date>     <dbl> <chr>
##  1 2020-07-12  25.2 Mask 
##  2 2020-07-13  19.8 Mask 
##  3 2020-07-14  19.8 Mask 
##  4 2020-07-15  20.5 Mask 
##  5 2020-07-16  19.8 Mask 
##  6 2020-07-17  19.8 Mask 
##  7 2020-07-18  20.4 Mask 
##  8 2020-07-19  19.8 Mask 
##  9 2020-07-20  20.3 Mask 
## 10 2020-07-21  21.2 Mask 
## # … with 36 more rows
…
