…
Select

hotels %>%
  select(hotel, lead_time)

## # A tibble: 119,390 × 2
##    hotel        lead_time
##    <chr>            <dbl>
##  1 Resort Hotel       342
##  2 Resort Hotel       737
##  3 Resort Hotel         7
##  4 Resort Hotel        13
##  5 Resort Hotel        14
##  6 Resort Hotel        14
##  7 Resort Hotel         0
##  8 Resort Hotel         9
##  9 Resort Hotel        85
## 10 Resort Hotel        75
## # … with 119,380 more rows

hotels %>% # select a range of variables
  select(hotel:arrival_date_month)

## # A tibble: 119,390 × 5
##    hotel        is_canceled lead_time arrival_date_year arrival_date_month
##    <chr>              <dbl>     <dbl>             <dbl> <chr>             
##  1 Resort Hotel           0       342              2015 July              
##  2 Resort Hotel           0       737              2015 July              
##  3 Resort Hotel           0         7              2015 July              
##  4 Resort Hotel           0        13              2015 July              
##  5 Resort Hotel           0        14              2015 July              
##  6 Resort Hotel           0        14              2015 July              
##  7 Resort Hotel           0         0              2015 July              
##  8 Resort Hotel           0         9              2015 July              
##  9 Resort Hotel           1        85              2015 July              
## 10 Resort Hotel           1        75              2015 July              
## # … with 119,380 more rows

hotels %>% # select variables with certain characteristics
  select(starts_with("arrival"))

## # A tibble: 119,390 × 4
##    arrival_date_year arrival_date_month arrival_date_week_numb… arrival_date_da…
##                <dbl> <chr>                                <dbl>            <dbl>
##  1              2015 July                                    27                1
##  2              2015 July                                    27                1
##  3              2015 July                                    27                1
##  4              2015 July                                    27                1
##  5              2015 July                                    27                1
##  6              2015 July                                    27                1
##  7              2015 July                                    27                1
##  8              2015 July                                    27                1
##  9              2015 July                                    27                1
## 10              2015 July                                    27                1
## # … with 119,380 more rows

Arange

hotels %>% #ascending
  select(adults, children, babies) %>%
  arrange(babies)

## # A tibble: 119,390 × 3
##    adults children babies
##     <dbl>    <dbl>  <dbl>
##  1      2        0      0
##  2      2        0      0
##  3      1        0      0
##  4      1        0      0
##  5      2        0      0
##  6      2        0      0
##  7      2        0      0
##  8      2        0      0
##  9      2        0      0
## 10      2        0      0
## # … with 119,380 more rows

hotels %>% #descending
  select(adults, children, babies) %>%
  arrange(desc(babies))

## # A tibble: 119,390 × 3
##    adults children babies
##     <dbl>    <dbl>  <dbl>
##  1      2        0     10
##  2      1        0      9
##  3      2        0      2
##  4      2        0      2
##  5      2        0      2
##  6      2        0      2
##  7      2        0      2
##  8      2        0      2
##  9      2        0      2
## 10      2        0      2
## # … with 119,380 more rows
…
Filter

# bookings in City Hotels
hotels %>%
  filter(hotel == "City Hotel")

## # A tibble: 79,330 × 32
##    hotel      is_canceled lead_time arrival_date_year arrival_date_month
##    <chr>            <dbl>     <dbl>             <dbl> <chr>             
##  1 City Hotel           0         6              2015 July              
##  2 City Hotel           1        88              2015 July              
##  3 City Hotel           1        65              2015 July              
##  4 City Hotel           1        92              2015 July              
##  5 City Hotel           1       100              2015 July              
##  6 City Hotel           1        79              2015 July              
##  7 City Hotel           0         3              2015 July              
##  8 City Hotel           1        63              2015 July              
##  9 City Hotel           1        62              2015 July              
## 10 City Hotel           1        62              2015 July              
## # … with 79,320 more rows, and 27 more variables:
## #   arrival_date_week_number <dbl>, arrival_date_day_of_month <dbl>,
## #   stays_in_weekend_nights <dbl>, stays_in_week_nights <dbl>, adults <dbl>,
## #   children <dbl>, babies <dbl>, meal <chr>, country <chr>,
## #   market_segment <chr>, distribution_channel <chr>, is_repeated_guest <dbl>,
## #   previous_cancellations <dbl>, previous_bookings_not_canceled <dbl>,
## #   reserved_room_type <chr>, assigned_room_type <chr>, …

hotels %>%
  filter( 
    adults == 0,
    children >= 1
    ) %>% 
  select(adults, babies, children)

## # A tibble: 223 × 3
##    adults babies children
##     <dbl>  <dbl>    <dbl>
##  1      0      0        3
##  2      0      0        2
##  3      0      0        2
##  4      0      0        2
##  5      0      0        2
##  6      0      0        3
##  7      0      1        2
##  8      0      0        2
##  9      0      0        2
## 10      0      0        2
## # … with 213 more rows
…
Mutate

hotels %>%
  mutate(little_ones = children + babies) %>%
  select(children, babies, little_ones) %>%
  arrange(desc(little_ones))

## # A tibble: 119,390 × 3
##    children babies little_ones
##       <dbl>  <dbl>       <dbl>
##  1       10      0          10
##  2        0     10          10
##  3        0      9           9
##  4        2      1           3
##  5        2      1           3
##  6        2      1           3
##  7        3      0           3
##  8        2      1           3
##  9        2      1           3
## 10        3      0           3
## # … with 119,380 more rows

# Resort Hotel
hotels %>%
  mutate(little_ones = children + babies) %>%
  filter(
    little_ones >= 1,
    hotel == "Resort Hotel"
    ) %>%
  select(hotel, little_ones)

## # A tibble: 3,929 × 2
##    hotel        little_ones
##    <chr>              <dbl>
##  1 Resort Hotel           1
##  2 Resort Hotel           2
##  3 Resort Hotel           2
##  4 Resort Hotel           2
##  5 Resort Hotel           1
##  6 Resort Hotel           1
##  7 Resort Hotel           2
##  8 Resort Hotel           2
##  9 Resort Hotel           1
## 10 Resort Hotel           1
## # … with 3,919 more rows
…
